%YAML 1.1
%TAG !u! tag:unity3d.com,2011:
--- !u!1045 &1
EditorBuildSettings:
  m_ObjectHideFlags: 0
  serializedVersion: 2
  m_Scenes:
  - enabled: 1
    path: Assets/Zoran/Menu.unity
    guid: 25e292f2ad4f08349990d170bfaf52ce
  - enabled: 1
    path: Assets/Zoran/Zoran.unity
    guid: 059eeac7cb001804aabe7e0c35ee5ecf
